Use this to easily find your biomes in Minecraft
Temperate Jungle: 3531272802911340052 at x=-576,z=592
                  324557561547170483 at spawn
Volcanic Field: 2394 at spawn (x=154,z=268)
Glacier: 9022 near spawn
Rocky Desert: 1571390710919589651 at x=205,z=-633
Salt Flat: 1571390710919589651 at x=38,z=-1302
Mesa: 8419395414456895919
