{
  "type": "minecraft:crafting_shaped",
  "pattern": [
    "###",
    "#M#",
    "###"
  ],
  "key": {
    "#": {
      "item": "nnparadisemod:salt"
    },
    "M": {
      "item": "minecraft:beef"
    }
  },
  "result": {
    "item": "nnparadisemod:beef_jerky",
    "count": 1
  }
}
