{
  "type": "minecraft:crafting_shaped",
  "pattern": [
    "###",
    "#M#",
    "###"
  ],
  "key": {
    "#": {
      "item": "nnparadisemod:salt"
    },
    "M": {
      "item": "minecraft:mutton"
    }
  },
  "result": {
    "item": "nnparadisemod:mutton_jerky",
    "count": 1
  }
}
