{
	"credit": "Made with Blockbench",
	"texture_size": [20, 20],
	"textures": {
		"0": "nnparadisemod:blocks/prickly_pear",
		"particle": "nnparadisemod:blocks/prickly_pear"
	},
	"elements": [
		{
			"from": [4, 2, 7.5],
			"to": [12, 14, 8.5],
			"faces": {
				"north": {"uv": [6.4, 0, 16, 6.4], "rotation": 90, "texture": "#0"},
				"east": {"uv": [6.4, 0, 16, 0.8], "rotation": 90, "texture": "#0"},
				"south": {"uv": [0, 0, 9.6, 6.4], "rotation": 90, "texture": "#0"},
				"west": {"uv": [0, 0, 9.6, 0.8], "rotation": 90, "texture": "#0"},
				"up": {"uv": [2.4, 4, 8.8, 4.8], "texture": "#0"},
				"down": {"uv": [0, 0, 6.4, 0.8], "texture": "#0"}
			}
		},
		{
			"from": [5, 14, 7.5],
			"to": [11, 15, 8.5],
			"faces": {
				"north": {"uv": [4, 6.4, 8.8, 7.2], "texture": "#0"},
				"east": {"uv": [4, 3.2, 4.8, 4], "texture": "#0"},
				"south": {"uv": [7.2, 5.6, 12, 6.4], "texture": "#0"},
				"west": {"uv": [1.6, 4, 2.4, 4.8], "texture": "#0"},
				"up": {"uv": [4, 6.4, 8.8, 7.2], "texture": "#0"},
				"down": {"uv": [0, 0, 4.8, 0.8], "texture": "#0"}
			}
		},
		{
			"from": [6, 15, 7.5],
			"to": [10, 16, 8.5],
			"faces": {
				"north": {"uv": [3.2, 6.4, 6.4, 7.2], "texture": "#0"},
				"east": {"uv": [4, 2.4, 4.8, 3.2], "texture": "#0"},
				"south": {"uv": [9.6, 7.2, 12.8, 8], "texture": "#0"},
				"west": {"uv": [5.6, 4.8, 6.4, 5.6], "texture": "#0"},
				"up": {"uv": [4, 7.2, 7.2, 8], "texture": "#0"}
			}
		},
		{
			"from": [5, 1, 7.5],
			"to": [11, 2, 8.5],
			"faces": {
				"north": {"uv": [4, 4.8, 8.8, 5.6], "texture": "#0"},
				"east": {"uv": [2.4, 4, 3.2, 4.8], "texture": "#0"},
				"south": {"uv": [5.6, 7.2, 10.4, 8], "texture": "#0"},
				"west": {"uv": [1.6, 7.2, 2.4, 8], "texture": "#0"},
				"down": {"uv": [3.2, 4, 8, 4.8], "texture": "#0"}
			}
		},
		{
			"from": [7, 0, 7.5],
			"to": [9, 1, 8.5],
			"faces": {
				"north": {"uv": [8, 6.4, 9.6, 7.2], "texture": "#0"},
				"east": {"uv": [5.6, 4.8, 6.4, 5.6], "texture": "#0"},
				"south": {"uv": [7.2, 7.2, 8.8, 8], "texture": "#0"},
				"west": {"uv": [2.4, 2.4, 3.2, 3.2], "texture": "#0"},
				"down": {"uv": [4.8, 4, 6.4, 4.8], "texture": "#0"}
			}
		},
		{
			"from": [5, 3, 6.5],
			"to": [11, 13, 7.5],
			"faces": {
				"north": {"uv": [11.2, 0, 16, 8], "texture": "#0"},
				"east": {"uv": [10.4, 0, 11.2, 8], "texture": "#0"},
				"west": {"uv": [0, 0, 0.8, 8], "texture": "#0"},
				"up": {"uv": [4, 6.4, 8.8, 7.2], "texture": "#0"},
				"down": {"uv": [4.8, 4.8, 9.6, 5.6], "texture": "#0"}
			}
		},
		{
			"from": [5, 3, 8.5],
			"to": [11, 13, 9.5],
			"faces": {
				"east": {"uv": [15.2, 0, 16, 8], "texture": "#0"},
				"south": {"uv": [0, 0, 4.8, 8], "texture": "#0"},
				"west": {"uv": [0, 0, 0.8, 8], "texture": "#0"},
				"up": {"uv": [0, 0, 4.8, 0.8], "texture": "#0"},
				"down": {"uv": [11.2, 0, 16, 0.8], "texture": "#0"}
			}
		},
		{
			"from": [6, 13, 8.5],
			"to": [10, 14, 9.5],
			"faces": {
				"east": {"uv": [4, 0, 4.8, 1.23077], "texture": "#0"},
				"south": {"uv": [0, 0, 3.2, 0.8], "texture": "#0"},
				"west": {"uv": [0, 0, 0.8, 0.8], "texture": "#0"},
				"up": {"uv": [0, 0, 3.2, 0.8], "texture": "#0"}
			}
		},
		{
			"from": [7, 14, 8.5],
			"to": [9, 15, 9.5],
			"faces": {
				"east": {"uv": [0, 0, 0.8, 0.8], "texture": "#0"},
				"south": {"uv": [14.4, 0, 16, 0.8], "texture": "#0"},
				"west": {"uv": [0, 0, 0.8, 0.8], "texture": "#0"},
				"up": {"uv": [0, 0, 1.6, 0.8], "texture": "#0"}
			}
		},
		{
			"from": [7, 14, 6.5],
			"to": [9, 15, 7.5],
			"faces": {
				"north": {"uv": [0, 0, 1.6, 0.8], "texture": "#0"},
				"east": {"uv": [3.2, 6.4, 4, 7.2], "texture": "#0"},
				"west": {"uv": [8, 4.8, 8.8, 5.6], "texture": "#0"},
				"up": {"uv": [4, 6.4, 5.6, 7.2], "texture": "#0"}
			}
		},
		{
			"from": [6, 13, 6.5],
			"to": [10, 14, 7.5],
			"faces": {
				"north": {"uv": [0, 0, 3.2, 0.8], "texture": "#0"},
				"east": {"uv": [4, 6.4, 4.8, 7.2], "texture": "#0"},
				"west": {"uv": [1.6, 4.92308, 2.4, 6.15385], "texture": "#0"},
				"up": {"uv": [2.4, 4.8, 5.6, 5.6], "texture": "#0"}
			}
		},
		{
			"from": [6, 2, 8.5],
			"to": [10, 3, 9.5],
			"faces": {
				"east": {"uv": [4, 2.4, 4.8, 3.2], "texture": "#0"},
				"south": {"uv": [12.8, 0, 16, 0.8], "texture": "#0"},
				"west": {"uv": [0, 0, 0.8, 0.8], "texture": "#0"},
				"down": {"uv": [5.6, 7.2, 8.8, 8], "texture": "#0"}
			}
		},
		{
			"from": [6, 2, 6.5],
			"to": [10, 3, 7.5],
			"faces": {
				"north": {"uv": [12.8, 0, 16, 0.8], "texture": "#0"},
				"east": {"uv": [1.6, 2.46154, 2.4, 3.26154], "texture": "#0"},
				"west": {"uv": [4.8, 4.8, 5.6, 5.6], "texture": "#0"},
				"down": {"uv": [4, 4.8, 7.2, 5.6], "texture": "#0"}
			}
		},
		{
			"from": [7, 14, 10.5],
			"to": [9, 16, 12.5],
			"faces": {
				"north": {"uv": [0, 8.8, 1.6, 10.4], "texture": "#0"},
				"east": {"uv": [0, 8.8, 1.6, 10.4], "texture": "#0"},
				"south": {"uv": [0, 8.8, 1.6, 10.4], "texture": "#0"},
				"west": {"uv": [0, 8, 1.6, 9.6], "texture": "#0"},
				"up": {"uv": [0.8, 8.8, 2.4, 10.4], "texture": "#0"},
				"down": {"uv": [0.8, 8.8, 2.4, 10.4], "texture": "#0"}
			}
		},
		{
			"from": [7, 12, 9.5],
			"to": [9, 14, 11.5],
			"faces": {
				"east": {"uv": [0.8, 8, 2.4, 9.6], "texture": "#0"},
				"south": {"uv": [0.8, 8, 2.4, 9.6], "texture": "#0"},
				"west": {"uv": [0, 8, 1.6, 9.6], "texture": "#0"},
				"up": {"uv": [0, 8.8, 1.6, 10.4], "texture": "#0"},
				"down": {"uv": [0.8, 8.8, 2.4, 10.4], "texture": "#0"}
			}
		},
		{
			"from": [7, 12, 4.5],
			"to": [9, 14, 6.5],
			"faces": {
				"north": {"uv": [0, 8.8, 1.6, 10.4], "texture": "#0"},
				"east": {"uv": [0.8, 8, 2.4, 9.6], "texture": "#0"},
				"west": {"uv": [0.8, 8.8, 2.4, 10.4], "texture": "#0"},
				"up": {"uv": [0, 8.8, 1.6, 10.4], "texture": "#0"},
				"down": {"uv": [0.8, 8.8, 2.4, 10.4], "texture": "#0"}
			}
		},
		{
			"from": [7, 14, 3.5],
			"to": [9, 16, 5.5],
			"faces": {
				"north": {"uv": [0, 8.8, 1.6, 10.4], "texture": "#0"},
				"east": {"uv": [0.8, 8, 2.4, 9.6], "texture": "#0"},
				"south": {"uv": [0.8, 8.8, 2.4, 10.4], "texture": "#0"},
				"west": {"uv": [0, 8, 1.6, 9.6], "texture": "#0"},
				"up": {"uv": [0, 8.8, 1.6, 10.4], "texture": "#0"},
				"down": {"uv": [0, 8, 1.6, 9.6], "texture": "#0"}
			}
		}
	]
}